School_id,Section_id,Teacher_id,Name,Grade,Course_name,Course_number,Period,Subject,Term_name,Term_start,Term_end
QA_I_School_ID_1,QA_I1_Section_ID_9,QA_I1_Teacher_ID_408,Statics,,QA_I1_Course_9,10009,2,,QA_I1_TERM,6/21/13,6/21/15
QA_I_School_ID_1,QA_I1_Section_ID_10,QA_I1_Teacher_ID_408,Dynamics,,QA_I1_Course_10,10010,2,,QA_I1_TERM,6/21/13,6/21/15
QA_I_School_ID_1,QA_I1_Section_ID_11,QA_I1_Teacher_ID_408,Vector Geometry,,QA_I1_Course_11,10011,2,,QA_I1_TERM,6/21/12,6/21/13
QA_I_School_ID_1,QA_I1_Section_ID_12,QA_I1_Teacher_ID_408,Statistical Quality Control,,QA_I1_Course_12,10012,2,,QA_I1_TERM,6/21/13,6/21/15
QA_I_School_ID_1,QA_I1_Section_ID_13,QA_I1_Teacher_ID_408,Computer-Aided Drafting,,QA_I1_Course_13,10013,2,,QA_I1_TERM,6/21/13,6/21/15
QA_I_School_ID_1,QA_I1_Section_ID_14,QA_I1_Teacher_ID_415,National Statics,,QA_I1_Course_14,10014,2,,QA_I1_TERM,6/21/13,6/21/15
QA_I_School_ID_1,QA_I1_Section_ID_15,QA_I1_Teacher_ID_415,Applied Dynamics,,QA_I1_Course_15,10015,2,,QA_I1_TERM,6/21/13,6/21/15
QA_I_School_ID_1,QA_I1_Section_ID_16,QA_I1_Teacher_ID_415,Vector Calculus,,QA_I1_Course_16,10016,2,,QA_I1_TERM,6/21/12,6/21/13
QA_I_School_ID_1,QA_I1_Section_ID_17,QA_I1_Teacher_ID_415,Quality Assurance & Control,,QA_I1_Course_17,10017,2,,QA_I1_TERM,6/21/13,6/21/15
QA_I_School_ID_1,QA_I1_Section_ID_18,QA_I1_Teacher_ID_415,Controlled Area Network,,QA_I1_Course_18,10018,2,,QA_I1_TERM,6/21/13,6/21/15
