School_id,Section_id,Teacher_id,Name,Grade,Course_name,Course_number,Period,Subject,Term_name,Term_start,Term_end
QA_E_School_ID_1,QA_E1_Section_ID_1,QA_E1_Teacher_ID_327,Writing,,MATH,8001,2,,QA_E1_TERM,4/21/13,6/21/15
QA_E_School_ID_1,QA_E1_Section_ID_2,QA_E1_Teacher_ID_328,Algebra,,MATH,8001,3,,QA_E1_TERM,4/21/13,6/21/15
QA_E_School_ID_1,QA_E1_Section_ID_3,QA_E1_Teacher_ID_328,Geometry,,MATH,8001,1,,QA_E1_TERM,4/21/13,6/21/15
QA_E_School_ID_1,QA_E1_Section_ID_4,QA_E1_Teacher_ID_327,Bash Tools,,COMPUTER SCIENCE,8002,1,,QA_E1_TERM,9/13/13,6/21/15
QA_E_School_ID_1,QA_E1_Section_ID_5,QA_E1_Teacher_ID_327,English History,,HISTORY,8003,1,,QA_E1_TERM_updated,9/21/13,6/21/15
QA_E_School_ID_1,QA_E1_Section_ID_6,QA_E1_Teacher_ID_327,Plato's Thoughts,,PHILOSOPHY,8004,1,,QA_E1_TERM,4/21/13,6/21/15
QA_E_School_ID_1,QA_E1_Section_ID_7,QA_E1_Teacher_ID_328,French,,LANGUAGE,8004,1,,QA_E1_TERM,8/21/13,6/21/15
QA_E_School_ID_1,QA_E1_Section_ID_8,QA_E1_Teacher_ID_3,Astronomy,,PHYSICS,8005,1,,QA_E1_TERM,4/21/13,6/21/15
QA_E_School_ID_1,QA_E1_Section_ID_9,QA_E1_Teacher_ID_3,Collisions,,PHYSICS,8005,1,,QA_E1_TERM,4/21/13,6/21/15
QA_E_School_ID_1,QA_E1_Section_ID_11,QA_E1_Teacher_ID_469,Calculus,,MATH,8001,2,,QA_E1_TERM,4/21/13,6/21/15
QA_E_School_ID_1,QA_E1_Section_ID_12,QA_E1_Teacher_ID_469,Statistics,,MATH,8001,3,,QA_E1_TERM,4/21/13,6/21/15
QA_E_School_ID_1,QA_E1_Section_ID_13,QA_E1_Teacher_ID_469,Linear Algebra,,MATH,8001,1,,QA_E1_TERM,4/21/13,6/21/15
QA_E_Prod_Sim_1,QA_E_Prod_Section_1,QA_E_Prod_Sim_Teacher_1,Spelling,,ENGLISH,9001,1,,QA_E_Prod_Sim_Term,4/21/13,6/21/15
QA_E_Prod_Sim_1,QA_E_Prod_Section_2,QA_E_Prod_Sim_Teacher_1,Reading,,ENGLISH,9001,2,,QA_E_Prod_Sim_Term,4/21/13,6/21/15
QA_E_Prod_Sim_1,QA_E_Prod_Section_3,QA_E_Prod_Sim_Teacher_1,Writing,,ENGLISH,9001,3,,QA_E_Prod_Sim_Term,4/21/13,6/21/15
QA_E_Prod_Sim_1,QA_E_Prod_Section_4,QA_E_Prod_Sim_Teacher_2,Grammar,,ENGLISH,9001,4,,QA_E_Prod_Sim_Term,4/21/13,6/21/15
QA_E_Prod_Sim_1,QA_E_Prod_Section_5,QA_E_Prod_Sim_Teacher_2,Literature Studies,,ENGLISH,9001,5,,QA_E_Prod_Sim_Term,4/21/13,6/21/15
QA_E_School_ID_1,QA_E1_Section_ID_14,QA_E1_Teacher_ID_328,Chinese,,LANGUAGE,8004,1,,QA_E1_TERM,8/21/13,6/21/15
QA_E_Prod_Sim_1,QA_E_Prod_Section_6,QA_E_Prod_Sim_Teacher_3,Philosophy,,PHILOSOPHY,9002,3,,QA_E_Prod_Sim_Term,4/21/13,6/21/15
QA_E_Prod_Sim_1,QA_E_Prod_Section_7,QA_E_Prod_Sim_Teacher_1,GOTOcon,,CONFERENCE,9003,1,,QA_E_Prod_Sim_Term,4/21/13,6/21/15
