School_id,Teacher_id,Teacher_number,State_teacher_id,Last_name,Middle_name,First_name,Teacher_email,Title,Username,Password
LO_QA_School_1,LO_Teacher_100,,,MacGyver,,Angus,amplifytest100@amplifydev.net,Mr,,
LO_QA_School_1,LO_Teacher_102,,,Monroe,,Marilyn,amplifytest102@amplifydev.net,Miss,,
