School_id,Student_id,Student_number,State_id,Last_name,Middle_name,First_name,Gender,Dob,Grade,Race,Hispanic_Latino,Ell_status,Frl_status,Iep_status,Student_zip,Student_email,Contact_name,Contact_type,Contact_phone,Contact_email,Username,Password
QA_C_School_ID_1,QA_C1_Student_ID_481,,QA_C1_State_ID,481,A,School1 Student,F,9/1/01,6,W,N,,,,7310,amplifytest481@amplifydev.net,,,,,,
QA_C_School_ID_1,QA_C1_Student_ID_482,,QA_C1_State_ID,482,B,School1 Student,M,9/2/01,6,W,Y,,,,7310,amplifytest482@amplifydev.net,,,,,,
QA_C_School_ID_2,QA_C2_Student_ID_484,,QA_C2_State_ID,484,C,School2 Student,M,9/2/01,6,W,Y,,,,7310,amplifytest484@amplifydev.net,,,,,,
QA_C_School_ID_3,QA_C2_Student_ID_xx1,,QA_C3_State_ID,1,,School3 Student,M,9/2/01,5,W,N,,,,7310,xx1@amplifydev.net,,,,,,
QA_C_School_ID_3,QA_C2_Student_ID_xx2,,QA_C3_State_ID,2,,School3 Student,M,9/2/01,5,W,N,,,,7310,xx2@amplifydev.net,,,,,,
QA_C_School_ID_3,QA_C2_Student_ID_xx3,,QA_C3_State_ID,3,,School3 Student,M,9/2/01,5,W,N,,,,7310,xx3@amplifydev.net,,,,,,
QA_C_School_ID_3,QA_C2_Student_ID_xx4,,QA_C3_State_ID,4,,School3 Student,M,9/2/01,5,W,N,,,,7310,xx4@amplifydev.net,,,,,,
QA_C_School_ID_3,QA_C2_Student_ID_xx5,,QA_C3_State_ID,5,,School3 Student,M,9/2/01,5,W,N,,,,7310,xx5@amplifydev.net,,,,,,
QA_C_School_ID_3,QA_C2_Student_ID_xx6,,QA_C3_State_ID,6,,School3 Student,M,9/2/01,5,W,N,,,,7310,xx6@amplifydev.net,,,,,,
QA_C_School_ID_3,QA_C2_Student_ID_xx7,,QA_C3_State_ID,7,,School3 Student,M,9/2/01,5,W,N,,,,7310,xx7@amplifydev.net,,,,,,
QA_C_School_ID_3,QA_C2_Student_ID_xx8,,QA_C3_State_ID,8,,School3 Student,M,9/2/01,5,W,N,,,,7310,xx8@amplifydev.net,,,,,,
QA_C_School_ID_3,QA_C2_Student_ID_xx9,,QA_C3_State_ID,9,,School3 Student,M,9/2/01,5,W,N,,,,7310,xx9@amplifydev.net,,,,,,
QA_C_School_ID_3,QA_C3_Student_ID_xx10,,QA_C3_State_ID,Student,,Jveal,M,9/2/01,5,W,N,,,,7310,jveal_student@amplifyprod.net,,,,,,
QA_C_School_ID_3,QA_C3_Student_ID_xx11,,QA_C3_State_ID,Charles,,Maurisa,M,9/2/01,5,W,N,,,,7310,kingschild0218@gmail.com,,,,,,
QA_C_School_ID_3,QA_C3_Student_ID_xx12,,QA_C3_State_ID,Charles,,Claudette,M,9/2/01,5,W,N,,,,7310,cvc4199@gmail.com,,,,,,
QA_C_School_ID_3,QA_C3_Student_ID_xx13,,QA_C3_State_ID,Celestine,,Keisha,M,9/2/01,5,W,N,,,,7310,keishaccelestine@gmail.com,,,,,,
QA_C_School_ID_1,QA_C3_Student_ID_xx14,,QA_C1_State_ID,Celestine,,Khadijah,F,9/2/01,5,W,N,,,,7310,sdistler@amplifyresearch.net,,,,,,
